2.25.24.128-2.25.24.255
2.25.26.0-2.25.26.127
2.25.27.128-2.25.27.255
2.25.32.0-2.25.33.255
2.25.34.128-2.25.35.255
2.25.37.128-2.25.38.255
2.25.40.0-2.25.40.255
2.25.41.128-2.25.42.127
2.25.43.0-2.25.43.255
2.25.47.0-2.25.47.127
2.25.48.128-2.25.48.255
2.25.49.128-2.25.49.255
2.25.51.128-2.25.51.255
2.25.52.128-2.25.53.255
2.25.55.128-2.25.55.255
2.25.56.128-2.25.56.255
2.25.57.128-2.25.57.255
2.25.59.0-2.25.62.127
2.25.65.0-2.25.66.255
2.25.68.0-2.25.68.127
2.25.70.128-2.25.72.255
2.25.74.128-2.25.77.127
2.25.79.0-2.25.79.127
2.25.80.0-2.25.81.127
2.25.81.128-2.25.81.255
2.25.82.0-2.25.82.255
2.25.83.128-2.25.87.255
2.25.89.128-2.25.89.255
2.25.91.0-2.25.91.127
2.25.92.0-2.25.93.127
2.25.94.0-2.25.95.255
2.25.96.128-2.25.97.255
2.25.98.128-2.25.100.255
2.25.101.128-2.25.101.255
2.25.144.0-2.25.144.127
2.25.145.0-2.25.145.255
2.25.153.0-2.25.154.255
2.25.157.128-2.25.157.255
2.25.159.128-2.25.159.255
2.25.161.0-2.25.161.255
2.25.165.0-2.25.165.127
2.25.166.0-2.25.166.127
2.25.170.0-2.25.171.127
2.25.178.128-2.25.178.255
2.25.183.0-2.25.183.127
2.25.184.0-2.25.185.127
2.25.186.0-2.25.187.127
2.25.188.0-2.25.190.255
2.25.191.128-2.25.192.127
2.25.193.0-2.25.194.127
2.25.195.0-2.25.195.127
2.25.196.0-2.25.198.255
2.25.199.128-2.25.204.127
2.25.205.0-2.25.205.255
2.25.206.128-2.25.206.255
2.25.208.0-2.25.208.127
2.25.209.0-2.25.210.255
2.25.211.128-2.25.212.127
2.25.213.0-2.25.219.255
2.25.221.128-2.25.221.255
2.25.222.128-2.25.223.255
2.26.208.128-2.26.208.255
2.26.211.0-2.26.211.127
2.26.214.0-2.26.214.255
2.26.219.0-2.26.219.255
2.26.225.128-2.26.226.255
2.26.230.128-2.26.230.255
2.26.233.128-2.26.233.255
2.26.236.0-2.26.236.255
2.27.72.0-2.27.73.255
2.27.74.128-2.27.75.255
2.27.76.128-2.27.76.255
2.27.79.0-2.27.79.255
2.27.82.0-2.27.82.255
2.27.84.0-2.27.85.255
2.27.87.0-2.27.102.255
2.27.104.0-2.27.104.255
2.27.106.0-2.27.107.255
2.27.109.0-2.27.110.127
2.27.111.0-2.27.111.127
2.27.236.0-2.27.236.255
2.27.242.0-2.27.243.255
2.27.246.0-2.27.247.255
2.27.251.0-2.27.252.255
2.27.255.0-2.27.255.127
2.28.6.0-2.28.6.127
2.28.12.0-2.28.12.255
2.28.40.0-2.28.40.127
2.28.41.128-2.28.41.255
2.28.42.128-2.28.42.255
2.28.44.0-2.28.44.127
2.28.46.0-2.28.47.255
2.28.56.0-2.28.59.127
2.28.62.0-2.28.63.255
2.28.68.0-2.28.68.127
2.28.69.0-2.28.73.255
2.28.77.0-2.28.80.255
2.28.81.128-2.28.82.127
2.28.84.0-2.28.86.255
2.28.88.0-2.28.88.255
2.28.90.0-2.28.90.255
2.28.92.0-2.28.93.255
2.28.94.128-2.28.95.127
2.28.136.128-2.28.137.255
2.28.139.0-2.28.139.127
2.28.141.0-2.28.143.255
2.28.145.0-2.28.145.127
2.28.146.0-2.28.147.127
2.28.149.0-2.28.149.255
2.28.151.0-2.28.152.255
2.28.154.0-2.28.156.255
2.28.157.128-2.28.157.255
2.28.160.0-2.28.160.255
2.28.162.0-2.28.162.127
2.28.163.0-2.28.163.255
2.28.164.128-2.28.165.127
2.28.167.0-2.28.167.255
2.28.168.128-2.28.169.255
2.28.170.128-2.28.172.127
2.28.173.128-2.28.173.255
2.28.175.0-2.28.175.127
2.29.33.0-2.29.33.127
2.29.120.128-2.29.120.255
2.29.122.128-2.29.122.255
2.29.125.0-2.29.129.127
2.29.129.128-2.29.129.255
2.29.130.0-2.29.130.255
2.29.132.0-2.29.132.127
2.29.134.0-2.29.136.127
2.29.137.0-2.29.139.255
2.29.140.128-2.29.140.255
2.29.142.0-2.29.143.255
2.29.149.128-2.29.149.255
2.29.151.128-2.29.151.255
2.29.152.128-2.29.152.255
2.29.153.128-2.29.155.255
2.29.205.0-2.29.205.127
2.30.19.0-2.30.19.255
2.30.25.0-2.30.25.127
2.30.25.128-2.30.25.255
2.30.26.0-2.30.26.255
2.30.28.128-2.30.28.255
2.30.29.0-2.30.29.255
2.30.31.0-2.30.31.255
2.30.33.128-2.30.33.255
2.30.35.0-2.30.35.127
2.30.37.0-2.30.37.127
2.30.38.128-2.30.40.255
2.30.47.0-2.30.52.255
2.30.54.0-2.30.58.255
2.30.63.0-2.30.63.255
2.30.65.0-2.30.65.127
2.30.69.0-2.30.69.127
2.30.69.128-2.30.70.255
2.30.71.128-2.30.71.255
2.30.74.0-2.30.75.127
2.30.77.128-2.30.77.255
2.30.78.128-2.30.79.255
2.30.92.0-2.30.92.127
2.30.104.0-2.30.104.127
2.30.105.0-2.30.105.255
2.30.107.0-2.30.108.255
2.30.109.128-2.30.109.255
2.30.110.0-2.30.111.255
2.30.112.0-2.30.113.127
2.30.114.0-2.30.115.255
2.30.116.0-2.30.116.255
2.30.122.0-2.30.123.255
2.30.128.0-2.30.136.255
2.30.138.0-2.30.139.255
2.30.141.0-2.30.141.255
2.30.148.0-2.30.148.255
2.30.149.128-2.30.149.255
2.30.152.0-2.30.152.255
2.30.156.0-2.30.157.255
2.30.160.0-2.30.160.255
2.30.169.0-2.30.169.255
2.30.173.0-2.30.173.255
2.30.177.0-2.30.177.255
2.30.181.0-2.30.183.255
2.31.8.0-2.31.8.127
2.31.9.128-2.31.12.127
2.31.13.0-2.31.14.127
2.31.15.0-2.31.15.127
2.31.16.0-2.31.16.127
2.31.17.0-2.31.18.127
2.31.19.0-2.31.20.127
2.31.21.0-2.31.23.127
2.31.32.0-2.31.33.255
2.31.35.0-2.31.35.127
2.31.36.128-2.31.36.255
2.31.38.0-2.31.39.127
2.31.147.0-2.31.147.255
2.31.192.0-2.31.193.255
2.31.198.0-2.31.198.255
2.31.202.0-2.31.204.255
2.31.208.128-2.31.210.255
2.31.212.0-2.31.212.255
2.31.215.0-2.31.216.255
2.31.218.0-2.31.219.255
2.31.220.128-2.31.220.255
2.31.232.0-2.31.234.255
2.31.236.128-2.31.236.255
2.31.238.0-2.31.239.127
2.31.243.0-2.31.243.255
2.31.244.128-2.31.244.255
2.31.246.128-2.31.246.255
2.96.32.0-2.96.47.255
2.96.169.0-2.96.169.255
2.96.208.0-2.96.209.255
2.96.216.0-2.96.217.255
2.98.153.0-2.98.153.255
2.98.240.0-2.98.241.255
2.98.243.0-2.98.243.255
2.98.245.0-2.98.249.255
2.98.253.0-2.98.253.255
2.98.255.0-2.98.255.255
2.99.54.0-2.99.55.255
2.99.64.0-2.99.66.255
2.99.68.0-2.99.78.255
2.101.192.0-2.101.192.255
2.101.232.0-2.101.233.255
2.102.181.0-2.102.181.255
2.102.183.0-2.102.183.255
2.102.185.0-2.102.185.255
2.102.192.0-2.102.195.255
2.102.200.0-2.102.200.255
2.102.203.0-2.102.203.255
2.102.213.0-2.102.213.255
2.103.208.0-2.103.208.255
2.103.213.0-2.103.213.255
2.103.216.0-2.103.217.255
2.103.226.0-2.103.227.255
2.120.67.0-2.120.67.255
2.120.72.0-2.120.73.255
2.120.76.0-2.120.77.255
2.121.130.0-2.121.130.255
2.121.136.0-2.121.137.255
2.121.147.0-2.121.147.255
2.121.150.0-2.121.151.255
2.121.162.0-2.121.162.255
2.121.166.0-2.121.166.255
2.121.178.0-2.121.178.255
2.121.182.0-2.121.182.255
2.121.205.0-2.121.205.166
2.121.205.168-2.121.205.255
2.121.207.0-2.121.207.255
2.121.209.0-2.121.209.255
2.121.215.0-2.121.215.255
2.121.235.0-2.121.235.255
2.121.236.140-2.121.236.140
2.121.243.0-2.121.243.255
2.122.1.0-2.122.1.255
2.122.5.0-2.122.5.255
2.122.8.0-2.122.11.255
2.122.24.0-2.122.24.255
2.122.36.0-2.122.36.255
2.122.52.0-2.122.52.255
2.122.58.0-2.122.58.38
2.122.58.40-2.122.59.255
2.122.61.0-2.122.61.255
2.122.78.0-2.122.78.255
2.122.95.0-2.122.97.255
2.122.102.233-2.122.102.233
2.122.111.0-2.122.111.255
2.122.114.0-2.122.115.255
2.122.117.0-2.122.119.255
2.122.135.0-2.122.135.129
2.122.135.131-2.122.135.255
2.122.157.0-2.122.157.255
2.122.163.0-2.122.163.255
2.122.166.0-2.122.166.255
2.122.176.0-2.122.176.255
2.122.184.0-2.122.185.255
2.122.192.0-2.122.193.255
2.122.195.68-2.122.195.68
2.122.198.0-2.122.198.255
2.122.200.0-2.122.200.255
2.122.204.0-2.122.205.255
2.122.208.0-2.122.208.255
2.122.216.0-2.122.219.255
2.122.222.0-2.122.227.255
2.122.236.0-2.122.239.255
2.122.250.0-2.122.253.255
2.123.68.0-2.123.73.255
2.123.75.0-2.123.97.209
2.123.97.211-2.123.105.18
2.123.105.20-2.123.127.255
2.123.162.0-2.123.163.255
2.123.176.0-2.123.176.255
2.123.204.0-2.123.204.255
2.123.206.0-2.123.207.255
2.123.210.0-2.123.211.255
2.123.213.0-2.123.213.108
2.123.213.110-2.123.213.255
2.123.217.0-2.123.217.255
2.123.220.0-2.123.221.255
2.123.245.0-2.123.247.255
2.123.253.0-2.123.253.255
2.124.2.0-2.124.2.255
2.124.14.0-2.124.15.255
2.124.17.0-2.124.17.255
2.124.21.0-2.124.21.6
2.124.21.8-2.124.21.255
2.124.25.0-2.124.25.255
2.124.52.0-2.124.52.255
2.124.61.0-2.124.61.68
2.124.61.70-2.124.61.255
2.124.66.0-2.124.66.255
2.124.71.0-2.124.71.255
2.124.74.97-2.124.74.97
2.124.88.187-2.124.88.187
2.124.94.0-2.124.94.255
2.124.98.58-2.124.98.58
2.124.100.0-2.124.100.255
2.124.106.0-2.124.108.255
2.124.116.0-2.124.117.255
2.124.122.149-2.124.122.149
2.124.124.0-2.124.124.255
2.124.126.0-2.124.126.255
2.124.128.0-2.124.128.255
2.124.134.0-2.124.134.255
2.124.139.0-2.124.139.255
2.124.148.0-2.124.148.255
2.124.154.109-2.124.154.109
2.124.166.0-2.124.166.255
2.124.167.182-2.124.167.182
2.124.168.0-2.124.168.255
2.124.179.0-2.124.179.255
2.124.182.0-2.124.182.250
2.124.182.252-2.124.182.255
2.124.195.0-2.124.196.255
2.124.202.0-2.124.204.34
2.124.204.36-2.124.205.57
2.124.205.59-2.124.205.255
2.124.215.0-2.124.215.230
2.124.215.232-2.124.215.255
2.124.237.0-2.124.237.255
2.124.238.105-2.124.238.105
2.124.242.0-2.124.243.255
2.124.246.0-2.124.247.255
2.125.0.0-2.125.0.255
2.125.4.0-2.125.4.255
2.125.7.0-2.125.9.255
2.125.12.0-2.125.12.255
2.125.14.0-2.125.14.255
2.125.16.0-2.125.16.255
2.125.19.0-2.125.19.255
2.125.24.0-2.125.24.255
2.125.34.0-2.125.35.255
2.125.39.0-2.125.43.255
2.125.50.0-2.125.50.255
2.125.52.0-2.125.52.255
2.125.54.0-2.125.55.255
2.125.61.0-2.125.61.255
2.125.64.142-2.125.64.142
2.125.70.0-2.125.71.255
2.125.73.0-2.125.76.255
2.125.83.0-2.125.83.255
2.125.91.0-2.125.91.160
2.125.91.162-2.125.91.255
2.125.98.0-2.125.98.201
2.125.98.203-2.125.99.255
2.125.111.0-2.125.112.255
2.125.119.0-2.125.119.132
2.125.119.134-2.125.119.255
2.125.124.0-2.125.124.255
2.125.143.0-2.125.143.255
2.125.149.0-2.125.149.255
2.125.152.0-2.125.155.255
2.125.160.29-2.125.160.29
2.125.165.0-2.125.165.255
2.125.176.0-2.125.177.255
2.125.180.0-2.125.181.255
2.125.186.0-2.125.186.255
2.125.190.0-2.125.192.255
2.125.194.0-2.125.194.255
2.125.202.0-2.125.202.255
2.125.207.0-2.125.207.255
2.125.211.0-2.125.211.255
2.125.218.0-2.125.218.255
2.125.226.0-2.125.227.255
2.125.232.0-2.125.232.238
2.125.232.240-2.125.232.255
2.125.234.0-2.125.235.255
2.125.244.0-2.125.246.255
2.125.249.0-2.125.249.235
2.125.249.237-2.125.249.255
2.125.253.0-2.125.253.255
2.125.255.0-2.125.255.255
2.126.4.0-2.126.4.205
2.126.4.207-2.126.4.255
2.126.6.0-2.126.8.255
2.126.10.0-2.126.11.255
2.126.15.0-2.126.15.255
2.126.32.0-2.126.32.255
2.126.37.0-2.126.37.255
2.126.39.0-2.126.39.108
2.126.39.110-2.126.41.255
2.126.46.0-2.126.47.255
2.126.52.0-2.126.54.255
2.126.56.0-2.126.57.255
2.126.66.0-2.126.67.255
2.126.72.0-2.126.72.255
2.126.82.162-2.126.82.162
2.126.88.0-2.126.89.255
2.126.91.0-2.126.91.255
2.126.93.0-2.126.93.255
2.126.106.0-2.126.110.255
2.126.112.0-2.126.113.223
2.126.113.225-2.126.115.255
2.126.128.0-2.126.129.255
2.126.132.0-2.126.132.255
2.126.134.0-2.126.134.255
2.126.138.0-2.126.138.255
2.126.141.0-2.126.141.255
2.126.144.0-2.126.146.255
2.126.150.0-2.126.150.255
2.126.162.0-2.126.162.255
2.126.167.0-2.126.167.255
2.126.172.0-2.126.175.255
2.126.184.0-2.126.184.115
2.126.184.117-2.126.186.255
2.126.189.0-2.126.191.255
2.126.193.0-2.126.193.104
2.126.193.106-2.126.193.255
2.126.196.0-2.126.196.14
2.126.196.16-2.126.199.255
2.126.202.0-2.126.203.106
2.126.203.108-2.126.203.255
2.126.205.0-2.126.205.255
2.126.210.62-2.126.210.62
2.126.214.0-2.126.217.255
2.126.231.0-2.126.232.255
2.126.237.0-2.126.237.255
2.126.242.0-2.126.243.11
2.126.243.13-2.126.243.255
2.126.251.0-2.126.251.255
2.127.7.0-2.127.8.255
2.127.12.0-2.127.13.255
2.127.16.0-2.127.19.71
2.127.19.73-2.127.19.255
2.127.23.0-2.127.23.255
2.127.31.0-2.127.31.255
2.127.34.0-2.127.35.227
2.127.35.229-2.127.35.255
2.127.48.0-2.127.48.255
2.127.54.89-2.127.54.89
2.127.58.0-2.127.58.255
2.127.60.0-2.127.60.138
2.127.60.140-2.127.60.255
2.127.70.0-2.127.71.255
2.127.75.0-2.127.75.255
2.127.86.0-2.127.86.22
2.127.86.24-2.127.86.255
2.127.90.0-2.127.93.255
2.127.111.0-2.127.112.255
2.127.122.0-2.127.123.255
2.127.194.0-2.127.194.255
2.127.219.0-2.127.221.184
2.127.221.186-2.127.221.215
2.127.221.216-2.127.221.216
2.127.221.217-2.127.221.255
2.127.223.157-2.127.223.157
2.127.232.0-2.127.232.62
2.127.232.64-2.127.232.255
2.216.8.0-2.216.9.255
2.216.24.0-2.216.24.255
2.216.26.0-2.216.26.255
2.216.34.0-2.216.34.177
2.216.34.179-2.216.35.255
2.216.43.0-2.216.43.255
2.216.45.0-2.216.45.255
2.216.48.0-2.216.48.255
2.216.52.0-2.216.52.255
2.216.66.0-2.216.66.255
2.216.83.0-2.216.83.255
2.216.91.0-2.216.91.255
2.216.94.0-2.216.95.255
2.216.102.0-2.216.103.255
2.216.106.104-2.216.106.104
2.216.112.0-2.216.112.255
2.216.116.0-2.216.116.255
2.216.122.0-2.216.122.255
2.216.124.0-2.216.125.255
2.216.128.0-2.216.129.31
2.216.129.33-2.216.129.255
2.216.144.0-2.216.145.255
2.216.162.0-2.216.162.255
2.216.172.0-2.216.172.255
2.216.177.0-2.216.177.255
2.216.182.0-2.216.183.255
2.216.194.0-2.216.194.255
2.216.214.0-2.216.215.255
2.216.219.0-2.216.219.255
2.216.225.0-2.216.225.255
2.216.230.0-2.216.231.255
2.216.243.0-2.216.243.159
2.216.243.161-2.216.244.255
2.216.250.0-2.216.250.255
2.217.25.0-2.217.26.255
2.217.32.0-2.217.32.255
2.217.44.0-2.217.45.255
2.217.57.0-2.217.57.106
2.217.57.108-2.217.57.255
2.217.60.0-2.217.61.255
2.217.65.0-2.217.65.255
2.217.68.0-2.217.69.16
2.217.69.18-2.217.69.255
2.217.71.0-2.217.71.255
2.217.73.0-2.217.73.255
2.217.119.0-2.217.119.255
2.217.124.140-2.217.124.140
2.217.138.0-2.217.138.255
2.217.146.0-2.217.146.255
2.217.151.0-2.217.152.255
2.217.154.0-2.217.154.255
2.217.160.0-2.217.163.255
2.217.170.0-2.217.170.146
2.217.170.148-2.217.172.255
2.217.182.0-2.217.182.255
2.217.185.0-2.217.185.255
2.217.188.0-2.217.188.170
2.217.188.172-2.217.189.255
2.217.195.0-2.217.197.255
2.217.202.0-2.217.202.255
2.217.208.0-2.217.209.255
2.217.215.0-2.217.215.255
2.217.223.0-2.217.224.255
2.217.226.0-2.217.227.255
2.217.231.0-2.217.232.210
2.217.232.212-2.217.235.255
2.217.237.0-2.217.239.255
2.217.248.0-2.217.249.255
2.217.253.0-2.217.253.255
2.218.21.0-2.218.21.255
2.218.23.0-2.218.23.255
2.218.25.0-2.218.25.255
2.218.34.0-2.218.34.255
2.218.39.0-2.218.39.255
2.218.68.0-2.218.68.93
2.218.68.95-2.218.68.255
2.218.73.0-2.218.73.255
2.218.76.0-2.218.76.255
2.218.78.0-2.218.78.255
2.218.86.0-2.218.87.255
2.218.97.0-2.218.97.255
2.218.100.0-2.218.101.255
2.218.104.0-2.218.104.255
2.218.106.0-2.218.107.255
2.218.112.194-2.218.112.194
2.218.121.0-2.218.121.255
2.218.124.0-2.218.125.255
2.218.129.0-2.218.129.59
2.218.129.61-2.218.129.255
2.218.132.0-2.218.135.255
2.218.137.0-2.218.137.255
2.218.139.0-2.218.139.255
2.218.154.0-2.218.154.255
2.218.168.0-2.218.174.255
2.218.180.0-2.218.183.255
2.218.188.0-2.218.189.255
2.218.194.0-2.218.195.255
2.218.200.0-2.218.200.255
2.218.214.0-2.218.214.255
2.218.220.0-2.218.221.255
2.218.234.123-2.218.234.123
2.218.238.0-2.218.238.252
2.218.238.254-2.218.238.255
2.218.242.0-2.218.242.255
2.218.244.0-2.218.244.74
2.218.244.76-2.218.245.255
2.218.251.0-2.218.255.19
2.218.255.21-2.218.255.255
2.219.8.0-2.219.8.255
2.219.11.0-2.219.13.255
2.219.19.0-2.219.19.255
2.219.28.0-2.219.28.255
2.219.38.0-2.219.39.1
2.219.39.3-2.219.40.255
2.219.52.0-2.219.52.255
2.219.60.0-2.219.61.255
2.219.64.0-2.219.66.212
2.219.66.214-2.219.67.255
2.219.69.0-2.219.69.255
2.219.76.0-2.219.77.255
2.219.82.0-2.219.83.255
2.219.88.0-2.219.88.255
2.219.92.0-2.219.93.255
2.219.96.236-2.219.96.236
2.219.102.0-2.219.103.255
2.219.109.0-2.219.109.255
2.219.113.0-2.219.113.255
2.219.115.0-2.219.115.101
2.219.115.103-2.219.117.255
2.219.121.120-2.219.121.120
2.219.121.185-2.219.121.185
2.219.122.0-2.219.123.97
2.219.123.99-2.219.123.255
2.219.127.0-2.219.127.255
2.219.130.0-2.219.130.82
2.219.130.84-2.219.131.255
2.219.138.0-2.219.138.255
2.219.146.0-2.219.146.255
2.219.156.0-2.219.157.255
2.219.160.0-2.219.161.255
2.219.163.0-2.219.163.255
2.219.167.0-2.219.167.182
2.219.167.184-2.219.169.255
2.219.178.0-2.219.178.236
2.219.178.238-2.219.178.255
2.219.181.0-2.219.181.255
2.219.183.0-2.219.183.35
2.219.183.37-2.219.183.255
2.219.188.0-2.219.188.255
2.219.194.0-2.219.197.229
2.219.197.231-2.219.198.255
2.219.200.0-2.219.200.255
2.219.210.0-2.219.215.255
2.219.221.0-2.219.221.255
2.219.224.0-2.219.225.255
2.219.237.0-2.219.237.104
2.219.237.106-2.219.237.255
2.219.241.0-2.219.241.255
2.219.246.0-2.219.246.194
2.219.246.196-2.219.247.255
2.219.249.0-2.219.249.255
2.219.254.0-2.219.254.255
2.220.0.0-2.220.1.255
2.220.4.148-2.220.4.148
2.220.14.0-2.220.14.38
2.220.14.40-2.220.15.255
2.220.30.0-2.220.30.41
2.220.30.43-2.220.30.255
2.220.40.0-2.220.42.255
2.220.48.0-2.220.48.255
2.220.50.0-2.220.52.255
2.220.58.0-2.220.58.255
2.220.63.0-2.220.63.53
2.220.63.55-2.220.64.255
2.220.88.37-2.220.88.37
2.220.92.0-2.220.92.255
2.220.99.0-2.220.100.203
2.220.100.205-2.220.101.255
2.220.106.0-2.220.106.255
2.220.113.0-2.220.113.255
2.220.115.0-2.220.119.255
2.220.134.0-2.220.135.255
2.220.136.132-2.220.136.132
2.220.143.0-2.220.143.255
2.220.144.19-2.220.144.19
2.220.148.0-2.220.149.255
2.220.154.0-2.220.157.255
2.220.159.0-2.220.159.255
2.220.162.0-2.220.163.255
2.220.166.0-2.220.169.255
2.220.177.0-2.220.177.255
2.220.186.0-2.220.186.223
2.220.186.225-2.220.186.255
2.220.198.0-2.220.198.255
2.220.200.0-2.220.201.101
2.220.201.103-2.220.203.231
2.220.203.233-2.220.203.255
2.220.206.0-2.220.207.255
2.220.221.0-2.220.221.73
2.220.221.75-2.220.221.255
2.220.223.0-2.220.225.255
2.220.227.0-2.220.229.255
2.220.236.0-2.220.236.255
2.220.238.0-2.220.239.255
2.220.240.0-2.220.240.255
2.220.241.169-2.220.241.169
2.220.242.0-2.220.242.46
2.220.242.48-2.220.243.66
2.220.243.68-2.220.244.198
2.220.244.200-2.220.245.255
2.220.250.32-2.220.250.32
2.220.252.0-2.220.253.255
2.221.1.197-2.221.1.197
2.221.3.0-2.221.3.255
2.221.6.0-2.221.8.181
2.221.8.183-2.221.9.252
2.221.9.254-2.221.11.255
2.221.32.0-2.221.33.255
2.221.37.0-2.221.37.255
2.221.39.117-2.221.39.117
2.221.42.0-2.221.43.255
2.221.55.0-2.221.55.255
2.221.72.0-2.221.72.255
2.221.76.0-2.221.77.255
2.221.89.0-2.221.90.255
2.221.101.0-2.221.101.255
2.221.103.0-2.221.103.209
2.221.103.211-2.221.103.255
2.221.104.0-2.221.105.255
2.221.113.0-2.221.113.255
2.221.124.0-2.221.125.255
2.221.130.0-2.221.130.136
2.221.130.138-2.221.130.255
2.221.134.0-2.221.135.255
2.221.138.0-2.221.143.255
2.221.145.0-2.221.145.255
2.221.156.0-2.221.157.255
2.221.170.0-2.221.171.255
2.221.178.58-2.221.178.58
2.221.184.0-2.221.185.255
2.221.190.0-2.221.193.255
2.221.198.0-2.221.199.215
2.221.199.217-2.221.199.255
2.221.204.0-2.221.204.255
2.221.207.0-2.221.207.255
2.221.212.0-2.221.214.110
2.221.214.112-2.221.215.255
2.221.218.0-2.221.219.255
2.221.221.0-2.221.221.255
2.221.228.0-2.221.229.255
2.221.238.28-2.221.238.28
2.221.242.0-2.221.242.255
2.221.248.0-2.221.249.255
2.221.252.0-2.222.0.255
2.222.8.0-2.222.9.255
2.222.13.0-2.222.17.180
2.222.17.182-2.222.17.255
2.222.19.0-2.222.24.255
2.222.27.0-2.222.27.255
2.222.41.0-2.222.41.255
2.222.48.0-2.222.49.255
2.222.55.0-2.222.57.255
2.222.62.0-2.222.63.114
2.222.63.116-2.222.63.255
2.222.67.0-2.222.67.255
2.222.72.0-2.222.75.255
2.222.80.0-2.222.81.255
2.222.85.0-2.222.85.198
2.222.85.200-2.222.87.255
2.222.94.0-2.222.94.255
2.222.96.0-2.222.98.122
2.222.98.124-2.222.99.255
2.222.101.0-2.222.101.255
2.222.110.0-2.222.110.247
2.222.110.249-2.222.111.255
2.222.120.0-2.222.123.255
2.222.128.0-2.222.128.255
2.222.130.0-2.222.130.81
2.222.130.83-2.222.131.255
2.222.137.0-2.222.139.255
2.222.145.0-2.222.145.255
2.222.150.0-2.222.152.255
2.222.162.0-2.222.162.255
2.222.164.0-2.222.165.255
2.222.168.0-2.222.169.255
2.222.172.0-2.222.173.143
2.222.173.145-2.222.173.255
2.222.180.0-2.222.183.255
2.222.189.0-2.222.189.255
2.222.210.0-2.222.215.255
2.222.223.0-2.222.225.120
2.222.225.122-2.222.225.255
2.222.227.0-2.222.227.255
2.222.232.0-2.222.232.33
2.222.232.35-2.222.233.255
2.222.236.0-2.222.237.255
2.222.245.34-2.222.245.34
2.222.245.58-2.222.245.58
2.222.255.0-2.222.255.255
2.223.2.0-2.223.2.97
2.223.2.99-2.223.2.255
2.223.4.0-2.223.7.255
2.223.10.0-2.223.11.255
2.223.15.0-2.223.15.255
2.223.16.240-2.223.16.240
2.223.18.0-2.223.19.255
2.223.24.0-2.223.25.255
2.223.29.59-2.223.29.59
2.223.30.0-2.223.30.255
2.223.36.0-2.223.36.255
2.223.38.0-2.223.38.255
2.223.40.0-2.223.40.57
2.223.40.59-2.223.41.255
2.223.43.0-2.223.43.26
2.223.43.27-2.223.43.27
2.223.43.28-2.223.43.255
2.223.46.216-2.223.46.216
2.223.48.0-2.223.48.185
2.223.48.187-2.223.48.218
2.223.48.220-2.223.49.255
2.223.51.0-2.223.51.255
2.223.54.0-2.223.54.243
2.223.54.245-2.223.54.255
2.223.65.0-2.223.65.255
2.223.68.0-2.223.69.255
2.223.72.0-2.223.72.255
2.223.86.0-2.223.87.255
2.223.90.0-2.223.91.255
2.223.116.0-2.223.117.255
2.223.136.0-2.223.141.255
2.223.143.0-2.223.143.255
2.223.145.0-2.223.145.255
2.223.147.104-2.223.147.104
2.223.153.0-2.223.153.255
2.223.172.0-2.223.172.232
2.223.172.234-2.223.172.255
2.223.174.0-2.223.174.255
2.223.183.0-2.223.183.255
2.223.188.0-2.223.188.255
2.223.192.0-2.223.192.255
2.223.207.0-2.223.208.183
2.223.208.185-2.223.209.255
2.223.212.0-2.223.212.255
2.223.216.0-2.223.216.255
2.223.220.0-2.223.220.255
2.223.222.0-2.223.222.255
2.223.231.0-2.223.231.255
2.223.245.0-2.223.247.255
2.223.251.0-2.223.251.255
4.69.139.98-4.69.139.98
4.69.143.74-4.69.143.74
5.2.108.40-5.2.108.47
5.2.115.0-5.2.115.255
5.10.16.0-5.10.27.255
5.39.41.192-5.39.41.255
5.39.106.64-5.39.106.127
5.44.233.0-5.44.239.255
5.56.169.0-5.56.169.255
5.64.88.0-5.64.90.255
5.64.92.0-5.64.95.255
5.64.116.0-5.64.119.255
5.64.122.0-5.64.123.255
5.64.168.0-5.64.169.210
5.64.169.212-5.64.170.255
5.64.172.0-5.64.175.255
5.65.51.0-5.65.51.255
5.65.55.0-5.65.55.255
5.65.128.0-5.65.135.255
5.65.137.0-5.65.143.105
5.65.143.107-5.65.156.255
5.65.158.0-5.65.159.255
5.66.76.0-5.66.76.255
5.66.88.0-5.66.91.255
5.67.112.0-5.67.117.255
5.67.119.0-5.67.123.255
5.67.144.0-5.67.147.255
5.67.168.0-5.67.171.255
5.67.228.0-5.67.231.255
5.67.240.0-5.67.250.245
5.67.250.247-5.67.255.255
5.68.2.0-5.68.2.255
5.68.32.0-5.68.35.255
5.68.48.0-5.68.51.255
5.68.54.0-5.68.54.255
5.68.209.0-5.68.209.255
5.68.210.0-5.68.215.255
5.68.228.0-5.68.231.255
5.68.240.0-5.68.243.255
5.69.52.0-5.69.63.255
5.69.84.0-5.69.85.255
5.69.87.0-5.69.87.255
5.69.96.0-5.69.96.255
5.69.102.0-5.69.102.255
5.69.108.0-5.69.109.255
5.69.111.0-5.69.111.255
5.69.116.0-5.69.116.255
5.69.118.0-5.69.119.255
5.69.188.0-5.69.188.94
5.69.188.96-5.69.188.122
5.69.188.124-5.69.194.255
5.69.196.0-5.69.196.255
5.69.198.0-5.69.204.95
5.69.204.97-5.69.235.255
5.69.240.0-5.69.243.255
5.69.252.0-5.69.255.255
5.70.4.0-5.70.6.132
5.70.6.134-5.70.7.255
5.70.200.0-5.70.203.255
5.70.208.0-5.70.211.255
5.71.48.0-5.71.51.255
5.71.72.0-5.71.73.255
5.71.75.0-5.71.75.255
5.71.184.6-5.71.184.6
5.71.185.0-5.71.185.255
5.71.187.0-5.71.187.255
5.71.192.0-5.71.195.255
5.79.8.242-5.79.8.243
5.79.9.92-5.79.9.95
5.102.171.128-5.102.171.255
5.104.71.0-5.104.71.255
5.135.55.192-5.135.55.255
5.135.61.12-5.135.61.15
5.150.0.0-5.150.66.17
5.150.66.19-5.150.87.255
5.150.92.0-5.150.96.127
5.150.97.0-5.150.98.127
5.150.99.0-5.150.99.255
5.150.100.128-5.150.102.127
5.150.103.0-5.150.127.255
5.151.2.0-5.151.2.255
5.151.4.0-5.151.7.255
5.151.11.0-5.151.11.255
5.151.44.0-5.151.44.255
5.151.47.0-5.151.47.255
5.151.190.0-5.151.190.255
5.152.218.202-5.152.218.203
31.6.16.0-31.6.16.255
31.6.20.0-31.6.21.255
31.6.23.0-31.6.23.255
31.6.76.64-31.6.76.127
31.24.0.0-31.24.0.255
31.24.4.0-31.24.4.255
31.24.7.0-31.24.7.255
31.24.34.0-31.24.34.255
31.51.50.0-31.51.51.127
31.51.52.0-31.51.55.127
31.51.56.0-31.51.56.127
31.51.57.128-31.51.58.127
31.51.63.0-31.51.63.255
31.51.180.0-31.51.183.255
31.51.216.0-31.51.217.127
31.51.218.128-31.51.220.255
31.51.221.128-31.51.221.255
31.51.248.0-31.51.248.127
31.52.2.0-31.52.2.127
31.52.84.128-31.52.84.255
31.52.85.0-31.52.85.255
31.52.112.0-31.52.112.255
31.52.114.0-31.52.114.127
31.52.115.0-31.52.115.255
31.52.136.0-31.52.143.255
31.52.185.128-31.52.185.255
31.52.189.128-31.52.189.255
31.53.51.0-31.53.51.255
31.53.185.0-31.53.185.255
31.53.186.128-31.53.186.255
31.53.191.0-31.53.191.127
31.53.244.128-31.53.244.255
31.54.0.128-31.54.0.255
31.54.3.0-31.54.3.127
31.54.4.128-31.54.6.127
31.54.7.0-31.54.7.127
31.54.56.0-31.54.56.255
31.54.63.0-31.54.63.127
31.54.107.0-31.54.107.127
31.54.117.128-31.54.117.255
31.54.122.0-31.54.122.255
31.54.127.0-31.54.127.127
31.54.200.128-31.54.204.127
31.54.205.0-31.54.205.127
31.54.206.0-31.54.207.255
31.54.232.128-31.54.232.255
31.54.234.128-31.54.234.255
31.55.8.0-31.55.8.255
31.55.19.0-31.55.19.255
31.55.21.0-31.55.21.255
31.55.23.0-31.55.23.255
31.55.25.0-31.55.25.255
31.55.30.0-31.55.30.255
31.55.36.0-31.55.36.255
31.55.46.0-31.55.47.255
31.55.56.0-31.55.56.255
31.55.62.0-31.55.62.255
31.55.66.0-31.55.66.255
31.55.69.0-31.55.69.255
31.55.75.0-31.55.76.255
31.55.78.0-31.55.79.255
31.55.82.0-31.55.83.255
31.55.88.0-31.55.88.255
31.55.97.0-31.55.99.255
31.55.102.0-31.55.103.255
31.55.106.0-31.55.106.255
31.55.111.0-31.55.111.255
31.55.118.0-31.55.119.255
31.55.122.0-31.55.122.255
31.55.126.128-31.55.126.255
31.67.152.0-31.67.152.255
31.68.75.0-31.68.77.255
31.68.145.0-31.68.145.255
31.71.213.0-31.71.213.255
31.72.106.0-31.72.106.255
31.72.211.0-31.72.211.255
31.72.220.0-31.72.220.255
31.73.244.0-31.73.244.255
31.74.9.0-31.74.9.255
31.74.100.0-31.74.100.255
31.75.14.0-31.75.14.255
31.75.153.0-31.75.153.255
31.76.100.0-31.76.100.255
31.76.180.0-31.76.180.255
31.77.5.0-31.77.5.255
31.78.46.0-31.78.46.255
31.79.109.0-31.79.109.255
31.79.133.0-31.79.133.255
31.80.105.0-31.80.105.255
31.80.218.0-31.80.218.255
31.81.62.0-31.81.62.255
31.81.69.0-31.81.69.255
31.81.177.0-31.81.177.255
31.82.32.0-31.82.32.255
31.82.85.0-31.82.85.255
31.82.112.0-31.82.112.255
31.82.227.0-31.82.227.255
31.84.51.0-31.84.51.255
31.84.228.0-31.84.228.255
31.85.63.0-31.85.63.255
31.85.220.0-31.85.221.255
31.85.242.0-31.85.242.255
31.86.9.0-31.86.9.255
31.86.55.0-31.86.56.255
31.86.79.0-31.86.79.255
31.86.130.0-31.86.130.255
31.87.246.0-31.87.246.255
31.88.30.0-31.88.30.255
31.88.124.0-31.88.124.127
31.89.4.0-31.89.4.255
31.89.41.0-31.89.41.255
31.89.147.0-31.89.147.255
31.89.210.0-31.89.210.255
31.90.57.0-31.90.57.255
31.91.76.0-31.91.76.255
31.93.112.0-31.93.112.255
31.93.227.0-31.93.227.255
31.93.246.0-31.93.246.255
31.193.3.0-31.193.3.255
31.193.137.0-31.193.137.255
31.193.223.0-31.193.223.255
31.205.10.233-31.205.10.233
31.205.16.72-31.205.16.73
31.205.17.20-31.205.17.21
31.205.17.32-31.205.17.39
31.205.17.40-31.205.17.43
31.205.17.44-31.205.17.47
31.205.17.64-31.205.17.95
31.205.34.144-31.205.34.144
31.205.34.197-31.205.34.197
31.205.35.0-31.205.35.7
31.205.44.0-31.205.44.127
31.205.56.85-31.205.56.85
31.205.56.112-31.205.56.115
31.205.56.130-31.205.56.130
31.205.59.0-31.205.59.255
31.205.60.128-31.205.60.255
31.205.61.20-31.205.61.23
31.205.61.28-31.205.61.31
31.205.61.64-31.205.61.143
31.205.61.184-31.205.61.191
31.205.62.0-31.205.62.255
31.205.63.64-31.205.64.7
31.205.64.60-31.205.64.61
31.205.65.97-31.205.65.97
31.205.66.1-31.205.66.1
31.205.66.112-31.205.66.127
31.205.66.192-31.205.66.223
31.205.67.229-31.205.67.229
31.205.67.240-31.205.67.247
31.205.69.0-31.205.69.255
31.205.70.32-31.205.70.34
31.205.70.36-31.205.70.39
31.205.74.192-31.205.74.255
31.205.96.162-31.205.96.163
31.205.97.0-31.205.97.83
31.205.97.88-31.205.97.255
31.205.99.128-31.205.100.127
31.205.102.144-31.205.102.145
31.205.102.180-31.205.102.183
31.220.201.0-31.220.201.255
31.220.216.0-31.220.216.255
31.220.228.128-31.220.228.255
31.220.245.128-31.220.245.255
31.220.254.128-31.220.254.255
31.221.2.0-31.221.3.255
31.221.4.128-31.221.5.127
31.221.8.0-31.221.8.63
31.221.10.0-31.221.10.255
31.221.13.0-31.221.13.255
31.221.15.0-31.221.15.127
31.221.16.0-31.221.21.255
31.221.23.0-31.221.23.127
31.221.24.224-31.221.25.255
31.221.26.128-31.221.26.255
31.221.29.0-31.221.29.191
31.221.29.224-31.221.29.255
31.221.31.0-31.221.31.255
31.221.33.0-31.221.33.255
31.221.35.0-31.221.35.255
31.221.36.0-31.221.37.255
31.221.38.128-31.221.43.255
31.221.45.0-31.221.46.255
31.221.49.0-31.221.56.255
31.221.58.0-31.221.64.255
31.221.67.0-31.221.67.255
31.221.68.128-31.221.68.255
31.221.70.0-31.221.70.255
31.221.71.128-31.221.72.255
31.221.75.0-31.221.77.255
31.221.79.0-31.221.79.255
31.221.82.0-31.221.82.127
31.221.83.128-31.221.83.255
31.221.88.0-31.221.89.255
31.221.93.0-31.221.93.255
31.222.163.0-31.222.163.255
31.222.221.0-31.222.223.255
32.42.24.176-32.42.24.183
32.42.25.160-32.42.25.255
32.106.27.0-32.106.30.255
32.106.48.0-32.106.55.255
32.106.64.0-32.106.67.255
32.106.97.0-32.106.98.255
32.106.188.0-32.106.191.255
32.106.250.0-32.106.255.255
37.1.155.0-37.1.155.255
37.9.56.0-37.9.56.255
37.16.88.0-37.16.95.255
37.17.184.0-37.17.184.255
37.26.79.0-37.26.79.255
37.46.25.0-37.46.25.255
37.59.235.200-37.59.235.207
37.61.233.0-37.61.233.255
37.77.57.56-37.77.57.59
37.77.176.0-37.77.176.255
37.77.178.0-37.77.179.255
37.77.182.0-37.77.182.255
37.123.114.0-37.123.114.255
37.123.117.0-37.123.118.255
37.130.248.0-37.130.249.255
37.152.42.229-37.152.42.229
37.157.32.128-37.157.36.255
37.203.145.0-37.203.146.127
37.203.147.0-37.203.148.255
37.203.157.0-37.203.157.255
37.203.170.0-37.203.170.255
37.203.178.0-37.203.179.255
37.203.197.0-37.203.197.255
37.220.104.0-37.220.111.255
37.235.54.49-37.235.54.49
37.252.192.0-37.252.192.255
37.252.230.0-37.252.230.255
41.222.105.0-41.222.105.255
41.222.108.0-41.222.108.255
46.18.104.128-46.18.104.255
46.18.219.224-46.18.219.236
46.18.219.238-46.18.219.239
46.22.74.0-46.22.75.255
46.30.8.0-46.30.15.255
46.30.55.0-46.30.55.255
46.33.0.64-46.33.0.127
46.33.1.0-46.33.1.255
46.33.11.0-46.33.11.255
46.33.28.0-46.33.28.255
46.33.134.0-46.33.135.255
46.33.144.0-46.33.144.255
46.34.1.0-46.34.1.255
46.34.3.0-46.34.3.255
46.34.23.0-46.34.23.255
46.34.25.136-46.34.25.143
46.34.29.0-46.34.29.255
46.36.195.101-46.36.195.110
46.36.199.201-46.36.199.207
46.37.36.0-46.37.36.63
46.37.36.128-46.37.36.255
46.37.40.43-46.37.40.43
46.37.40.112-46.37.40.112
46.37.42.0-46.37.43.255
46.37.46.0-46.37.47.255
46.37.48.128-46.37.48.191
46.37.49.128-46.37.51.255
46.37.53.0-46.37.53.255
46.37.54.16-46.37.54.255
46.37.57.0-46.37.58.85
46.37.58.87-46.37.58.191
46.37.58.193-46.37.63.255
46.37.189.0-46.37.189.127
46.43.32.0-46.43.33.255
46.43.60.128-46.43.60.255
46.43.61.128-46.43.63.255
46.64.16.128-46.64.16.255
46.64.17.0-46.64.17.255
46.64.21.0-46.64.21.255
46.64.22.128-46.64.23.127
46.64.24.128-46.64.24.255
46.64.25.128-46.64.26.127
46.64.27.0-46.64.27.255
46.64.29.0-46.64.31.255
46.64.48.0-46.64.55.255
46.64.64.128-46.64.68.255
46.64.70.0-46.64.73.127
46.64.74.0-46.64.75.127
46.64.77.0-46.64.78.255
46.65.4.0-46.65.4.255
46.65.5.128-46.65.10.255
46.65.14.0-46.65.17.255
46.65.19.0-46.65.22.127
46.65.24.128-46.65.26.127
46.65.28.0-46.65.29.255
46.65.31.0-46.65.31.255
46.65.33.0-46.65.40.255
46.65.42.0-46.65.43.255
46.65.45.0-46.65.50.255
46.65.52.0-46.65.55.127
46.65.56.0-46.65.56.255
46.65.62.0-46.65.62.255
46.65.70.0-46.65.70.255
46.65.74.128-46.65.75.255
46.65.77.0-46.65.77.255
46.65.79.0-46.65.79.255
46.65.82.0-46.65.82.255
46.65.86.128-46.65.86.255
46.65.88.0-46.65.88.255
46.65.93.0-46.65.96.255
46.65.99.128-46.65.99.255
46.65.111.0-46.65.113.255
46.65.115.0-46.65.116.255
46.65.170.0-46.65.170.255
46.65.172.0-46.65.173.255
46.65.175.0-46.65.175.255
46.65.183.0-46.65.183.255
46.65.196.0-46.65.196.255
46.65.201.0-46.65.202.255
46.65.204.0-46.65.205.255
46.65.207.0-46.65.207.255
46.65.208.128-46.65.209.255
46.65.214.0-46.65.214.255
46.65.217.0-46.65.219.255
46.65.221.0-46.65.222.255
46.65.226.0-46.65.229.255
46.65.230.128-46.65.231.255
46.65.241.0-46.65.241.255
46.65.244.0-46.65.246.255
46.65.251.0-46.65.253.255
46.65.255.0-46.65.255.255
46.105.131.128-46.105.131.191
46.105.173.0-46.105.173.3
46.227.50.0-46.227.50.255
46.233.68.128-46.233.69.255
46.235.152.0-46.235.152.255
46.245.240.0-46.245.243.255
46.245.250.0-46.245.250.127
46.247.5.0-46.247.5.255
46.249.209.0-46.249.209.255
46.252.67.0-46.252.67.63
46.255.116.32-46.255.117.97
46.255.117.99-46.255.119.45
46.255.119.47-46.255.119.255
46.255.125.0-46.255.125.255
57.66.102.0-57.66.102.255
61.28.198.0-61.28.198.255
62.3.105.0-62.3.105.63
62.3.120.64-62.3.120.127
62.3.217.0-62.3.217.255
62.3.230.128-62.3.230.255
62.3.242.0-62.3.242.127
62.3.242.128-62.3.242.255
62.3.246.0-62.3.246.255
62.6.152.0-62.6.152.255
62.6.188.0-62.6.188.255
62.6.234.0-62.6.234.127
62.7.72.114-62.7.72.114
62.7.74.0-62.7.74.255
62.7.95.0-62.7.95.127
62.7.95.192-62.7.96.255
62.7.225.0-62.7.225.255
62.8.104.0-62.8.104.96
62.8.104.98-62.8.104.255
62.8.125.0-62.8.125.255
62.25.77.0-62.25.77.255
62.25.109.204-62.25.109.204
62.30.94.152-62.30.94.159
62.30.95.249-62.30.95.249
62.31.40.128-62.31.40.255
62.31.42.0-62.31.43.255
62.31.45.0-62.31.46.255
62.31.54.0-62.31.56.255
62.31.88.0-62.31.88.255
62.31.127.0-62.31.127.255
62.31.240.128-62.31.242.255
62.31.250.0-62.31.250.127
62.31.250.128-62.31.250.255
62.41.22.0-62.41.22.7
62.49.25.0-62.49.25.255
62.49.49.0-62.49.49.255
62.49.58.100-62.49.58.103
62.49.62.0-62.49.63.255
62.49.77.0-62.49.77.255
62.49.110.0-62.49.110.255
62.49.138.0-62.49.138.255
62.49.177.0-62.49.177.255
62.49.185.88-62.49.185.95
62.49.193.64-62.49.193.71
62.49.195.64-62.49.195.71
62.49.209.0-62.49.209.255
62.49.211.0-62.49.211.255
62.49.235.208-62.49.235.215
62.49.240.128-62.49.240.143
62.49.253.184-62.49.253.191
62.50.232.0-62.50.235.255
62.50.240.0-62.50.247.255
62.56.48.0-62.56.48.255
62.56.55.0-62.56.57.255
62.56.60.128-62.56.61.255
62.60.103.128-62.60.103.255
62.72.44.16-62.72.44.31
62.73.138.0-62.73.138.255
62.73.151.0-62.73.151.255
62.73.153.0-62.73.153.255
62.73.156.0-62.73.157.255
62.73.174.0-62.73.174.255
62.73.178.0-62.73.178.255
62.84.152.0-62.84.152.255
62.84.183.0-62.84.183.255
62.105.168.224-62.105.168.255
62.105.169.32-62.105.169.63
62.105.169.192-62.105.170.31
62.105.170.192-62.105.170.223
62.105.174.224-62.105.174.255
62.105.190.32-62.105.190.63
62.105.190.96-62.105.190.127
62.121.24.0-62.121.24.255
62.128.197.0-62.128.197.255
62.129.64.0-62.129.127.255
62.130.241.0-62.130.241.255
62.133.1.0-62.133.1.255
62.133.6.0-62.133.9.255
62.133.15.0-62.133.15.255
62.133.19.0-62.133.20.255
62.133.24.0-62.133.24.255
62.133.29.0-62.133.29.255
62.133.31.0-62.133.31.255
62.140.192.0-62.140.192.255
62.140.194.0-62.140.195.255
62.140.210.0-62.140.210.255
62.140.212.0-62.140.213.255
62.171.202.184-62.171.202.191
62.172.64.0-62.172.64.255
62.172.76.0-62.172.76.255
62.172.127.0-62.172.127.255
62.172.172.0-62.172.172.127
62.173.69.176-62.173.69.183
62.173.69.192-62.173.69.255
62.173.83.32-62.173.83.63
62.173.89.0-62.173.89.255
62.173.92.232-62.173.92.235
62.173.108.176-62.173.108.191
62.173.112.0-62.173.112.3
62.173.114.0-62.173.115.255
62.173.193.0-62.173.193.255
62.188.64.0-62.188.75.255
62.188.168.0-62.188.175.255
62.189.22.64-62.189.22.127
62.189.56.0-62.189.56.255
62.189.67.0-62.189.67.205
62.189.67.207-62.189.68.255
62.189.73.0-62.189.73.255
62.189.76.0-62.189.77.255
62.189.81.0-62.189.81.255
62.189.88.0-62.189.89.255
62.189.93.218-62.189.93.218
62.189.98.0-62.189.98.255
62.189.100.0-62.189.100.255
62.189.107.0-62.189.107.255
62.189.112.0-62.189.112.127
62.189.114.0-62.189.115.255
62.189.124.0-62.189.124.255
62.189.126.0-62.189.127.255
62.189.136.0-62.189.136.127
62.189.145.0-62.189.145.255
62.189.161.0-62.189.163.255
62.189.190.96-62.189.190.111
62.189.220.0-62.189.220.255
62.189.228.128-62.189.228.191
62.189.234.0-62.189.234.255
62.190.10.0-62.190.10.255
62.190.13.192-62.190.13.223
62.190.15.96-62.190.15.127
62.190.104.0-62.190.104.255
62.190.107.0-62.190.107.255
62.190.110.0-62.190.110.255
62.190.132.0-62.190.132.255
62.190.138.0-62.190.138.255
62.190.147.0-62.190.147.255
62.190.150.0-62.190.150.255
62.190.154.0-62.190.154.255
62.197.44.0-62.197.44.255
62.200.52.0-62.200.52.255
62.200.73.0-62.200.73.255
62.231.143.0-62.231.143.255
62.231.155.56-62.231.155.59
62.232.19.0-62.232.19.255
62.232.28.0-62.232.28.255
62.232.34.0-62.232.34.255
62.232.66.0-62.232.66.255
62.232.88.0-62.232.89.255
62.232.105.0-62.232.105.255
62.232.136.0-62.232.139.255
62.232.144.0-62.232.147.255
62.244.179.0-62.244.179.255
62.244.184.0-62.244.186.255
62.244.189.0-62.244.190.255
62.252.102.0-62.252.102.127
62.252.103.0-62.252.103.255
62.252.113.0-62.252.113.255
62.252.115.0-62.252.115.255
62.253.137.0-62.253.137.255
62.253.199.0-62.253.199.255
62.253.218.10-62.253.218.10
62.254.76.0-62.254.76.255
62.254.78.0-62.254.78.127
62.254.79.128-62.254.79.255
62.254.212.0-62.254.212.255
62.255.252.0-62.255.252.255
63.218.13.0-63.218.13.255
63.218.34.0-63.218.35.255
63.218.52.0-63.218.55.255
64.69.167.0-64.69.167.255
64.69.189.69-64.69.189.69
64.124.182.0-64.124.182.255
64.208.179.0-64.208.179.255
64.209.101.242-64.209.101.245
64.209.107.250-64.209.107.253
64.235.18.0-64.235.18.255
64.236.9.0-64.236.9.255
66.232.128.0-66.232.135.255
68.169.68.1-68.169.68.128
68.169.78.0-68.169.79.255
69.52.66.0-69.52.66.255
69.191.176.0-69.191.177.255
72.21.90.0-72.21.90.255
74.85.152.0-74.85.152.255
74.122.26.0-74.122.26.255
74.125.57.0-74.125.57.23
74.125.57.48-74.125.57.127
74.125.57.176-74.125.57.255
74.125.61.144-74.125.61.151
74.125.61.184-74.125.61.191
74.125.61.216-74.125.61.255
77.44.25.0-77.44.25.255
77.44.46.0-77.44.46.255
77.44.78.128-77.44.78.255
77.44.90.0-77.44.90.255